%YAML 1.1
%TAG !u! tag:unity3d.com,2011:
--- !u!114 &11400000
MonoBehaviour:
  m_ObjectHideFlags: 0
  m_CorrespondingSourceObject: {fileID: 0}
  m_PrefabInstance: {fileID: 0}
  m_PrefabAsset: {fileID: 0}
  m_GameObject: {fileID: 0}
  m_Enabled: 1
  m_EditorHideFlags: 0
  m_Script: {fileID: 11500000, guid: 3178764c56834b5cb5299ecd5d7d6d66, type: 3}
  m_Name: BreadthFirstSearchSettings
  m_EditorClassIdentifier: 
  _noneNodeColor: {r: 0.2627451, g: 0.28627452, b: 0.32941177, a: 1}
  _queueNodeColor: {r: 0, g: 0.48627454, b: 0.6039216, a: 1}
  _processedNodeColor: {r: 0.28235295, g: 0.59607846, b: 0.48235297, a: 1}
  _pathNodeColor: {r: 0.9607844, g: 0.64705884, b: 0.121568635, a: 1}
  _groundNodeColor: {r: 0.2627451, g: 0.28627452, b: 0.32941177, a: 1}
  _wallNodeColor: {r: 0, g: 0, b: 0, a: 1}
  _waterNodeColor: {r: 0, g: 0.06844139, b: 1, a: 1}
  _mountainNodeColor: {r: 0.4716981, g: 0.18036155, b: 0, a: 1}
